D:\FinalRevise\SpringMVCFormSubmission\SpringMVCFormSubmission\src\main\java\com\javasampleapproach\formsubmission\util\DriveQuickstart.java
D:\FinalRevise\SpringMVCFormSubmission\SpringMVCFormSubmission\src\main\java\com\javasampleapproach\formsubmission\controller\SimpleWebController.java
D:\FinalRevise\SpringMVCFormSubmission\SpringMVCFormSubmission\src\main\java\com\javasampleapproach\formsubmission\manager\DbConnManager.java
D:\FinalRevise\SpringMVCFormSubmission\SpringMVCFormSubmission\src\main\java\com\javasampleapproach\formsubmission\model\NavPage.java
D:\FinalRevise\SpringMVCFormSubmission\SpringMVCFormSubmission\src\main\java\com\javasampleapproach\formsubmission\service\DataEntryService.java
D:\FinalRevise\SpringMVCFormSubmission\SpringMVCFormSubmission\src\main\java\com\javasampleapproach\formsubmission\SpringMvcFormSubmissionApplication.java
D:\FinalRevise\SpringMVCFormSubmission\SpringMVCFormSubmission\src\main\java\com\javasampleapproach\formsubmission\util\Utils.java
D:\FinalRevise\SpringMVCFormSubmission\SpringMVCFormSubmission\src\main\java\com\javasampleapproach\formsubmission\model\Customer.java
